…
prob_results =
  expand_grid(
    group_size = 2:50,
    iter = 1:10000) |>
  mutate(
    repeated_bthd = map_dbl(group_size, check_birthday)) |>
  group_by(group_size) |>
  summarize(
    prob_shared = mean(repeated_bthd))

prob_results
```

    ## # A tibble: 49 × 2
    ##    group_size prob_shared
    ##         <int>       <dbl>
    ##  1          2     0.00240
    ##  2          3     0.00850
    ##  3          4     0.0167 
    ##  4          5     0.0267 
    ##  5          6     0.0399 
    ##  6          7     0.0521 
    ##  7          8     0.0751 
    ##  8          9     0.0925 
    ##  9         10     0.116  
    ## 10         11     0.139  
    ## # ℹ 39 more rows
…
print(final_estimates)
```

    ## # A tibble: 51 × 6
    ##    city_state    total_homicides unsolved_homicides estimate_proportion conf_low
    ##    <chr>                   <int>              <int>               <dbl>    <dbl>
    ##  1 Chicago, IL              5535               4073               0.736    0.724
    ##  2 New Orleans,…            1434                930               0.649    0.623
    ##  3 Baltimore, MD            2827               1825               0.646    0.628
    ##  4 San Bernardi…             275                170               0.618    0.558
    ##  5 Buffalo, NY               521                319               0.612    0.569
    ##  6 Miami, FL                 744                450               0.605    0.569
    ##  7 Stockton, CA              444                266               0.599    0.552
    ##  8 Detroit, MI              2519               1482               0.588    0.569
    ##  9 Phoenix, AZ               914                504               0.551    0.518
    ## 10 Denver, CO                312                169               0.542    0.485
    ## # ℹ 41 more rows
    ## # ℹ 1 more variable: conf_high <dbl>
…
